{
  "migIndex": 1,
  "data": [
    {
      "path": "assets/fonts/.DS_Store",
      "sha1": "df2fbeb1400acda0909a32c1cf6bf492f1121e07"
    },
    {
      "path": "assets/fonts/SVN-ProductSansBold.ttf",
      "sha1": "ae66ea48efe6c009a0158f2e81e2d5b7a18e8e5d"
    },
    {
      "path": "assets/fonts/SVN-ProductSansBoldItalic.ttf",
      "sha1": "64d5e0cb1556ad9c768b47122e36d410574e7748"
    },
    {
      "path": "assets/fonts/SVN-ProductSansItalic.ttf",
      "sha1": "0df1fc6e7c87ec6a8a46ff7c3167ce38ba73fef7"
    },
    {
      "path": "assets/fonts/SVN-ProductSansRegular.ttf",
      "sha1": "94be8702e36315b02adb3ded6164ab1815aa793c"
    },
    {
      "path": "assets/audio/.DS_Store",
      "sha1": "ba0fbfff6c81c48fe6b88bab29bd05be88552eed"
    },
    {
      "path": "assets/audio/background.mp3",
      "sha1": "d47bde7421e17ca21062ccbe088299fcbe023d33"
    },
    {
      "path": "assets/audio/choosepicture/.DS_Store",
      "sha1": "7b257a7145db1ca68ec5a1e3652ad3f2387c174f"
    },
    {
      "path": "assets/audio/choosepicture/chooserightpicture/chooserightpicture_intro.mp3",
      "sha1": "6ab592ee4df795b96c4de6df4c73ce3b8e2a25b0"
    },
    {
      "path": "assets/audio/choosepicture/chooserightpicture/chooserightpicture_outro_lose.mp3",
      "sha1": "b88b21fabcdea741e2506471446600383fa5323e"
    },
    {
      "path": "assets/audio/choosepicture/chooserightpicture/chooserightpicture_outro_win.mp3",
      "sha1": "b0754951d916d29f9400a7c51691b0781d4183a0"
    },
    {
      "path": "assets/audio/choosepicture/chooserightpicture/chooserightpicture_right.mp3",
      "sha1": "39604c8f7ae9af587e1659290a1ae52818dbaf2b"
    },
    {
      "path": "assets/audio/choosepicture/chooserightpicture/chooserightpicture_wrong.mp3",
      "sha1": "36753cb6c6fb6f8e1466bd5693e56c5040fc2e27"
    },
    {
      "path": "assets/audio/choosepicture/listenandchoose/listenandchoose_intro.mp3",
      "sha1": "5ef4d9825334f51b838efc55a4ca500e90f43294"
    },
    {
      "path": "assets/audio/choosepicture/listenandchoose/listenandchoose_outro_lose.mp3",
      "sha1": "9bf632aa9397a49a0af86a3991e1430d328dbe11"
    },
    {
      "path": "assets/audio/choosepicture/listenandchoose/listenandchoose_outro_win.mp3",
      "sha1": "004df91904d36657e875a991e7a62bcb012e91a7"
    },
    {
      "path": "assets/audio/choosepicture/listenandchoose/listenandchoose_right.mp3",
      "sha1": "ef5df0bea5298ce0b5a8743b4fb45c84e1e69329"
    },
    {
      "path": "assets/audio/choosepicture/listenandchoose/listenandchoose_tutorial.mp3",
      "sha1": "a8ba7b2fcccc83be06399fea22a9138d7f6149cf"
    },
    {
      "path": "assets/audio/choosepicture/listenandchoose/listenandchoose_wrong.mp3",
      "sha1": "eadb737d1bc9b4e578b7dd97cfa08dd1b2c2a767"
    },
    {
      "path": "assets/audio/choosepicture/readandplay/readandplay_intro.mp3",
      "sha1": "600ebcc485277eb4999b1613e3cc1f6ee429ed2f"
    },
    {
      "path": "assets/audio/choosepicture/readandplay/readandplay_outro_lose.mp3",
      "sha1": "fd930c8c5cbfc58de502c2f35ce014ba70146d91"
    },
    {
      "path": "assets/audio/choosepicture/readandplay/readandplay_outro_win.mp3",
      "sha1": "4fc6882084f9fc3c1de4cf4d0db1ca1500720b80"
    },
    {
      "path": "assets/audio/choosetext/choosetext_intro.mp3",
      "sha1": "dcf71ca26a1001deac9e18a892cd959167a6321f"
    },
    {
      "path": "assets/audio/choosetext/choosetext_outro_lose.mp3",
      "sha1": "b88b21fabcdea741e2506471446600383fa5323e"
    },
    {
      "path": "assets/audio/choosetext/choosetext_outro_win.mp3",
      "sha1": "4fc6882084f9fc3c1de4cf4d0db1ca1500720b80"
    },
    {
      "path": "assets/audio/choosetext/choosetext_right.mp3",
      "sha1": "39604c8f7ae9af587e1659290a1ae52818dbaf2b"
    },
    {
      "path": "assets/audio/choosetext/choosetext_wrong.mp3",
      "sha1": "36753cb6c6fb6f8e1466bd5693e56c5040fc2e27"
    },
    {
      "path": "assets/audio/click.mp3",
      "sha1": "d5919f47f1feb98ac929633e657720cdbf28b48e"
    },
    {
      "path": "assets/audio/dragtexttoblank/dragtexttoblank_intro.mp3",
      "sha1": "e586f93a3f8f6fdf5f4ba978123dbeab996cd8a3"
    },
    {
      "path": "assets/audio/dragtexttoblank/dragtexttoblank_outro_lose.mp3",
      "sha1": "835ad1bc576a0d9ac6bcf66bc7de9a23f604cbef"
    },
    {
      "path": "assets/audio/dragtexttoblank/dragtexttoblank_outro_win.mp3",
      "sha1": "5531c64cb7d84ea9479495003af218249ce3dfd7"
    },
    {
      "path": "assets/audio/dragtexttoblank/dragtexttoblank_pop.mp3",
      "sha1": "0a914e50fef6f0c2a01d1e16111e63edfb86c718"
    },
    {
      "path": "assets/audio/dragtexttoblank/dragtexttoblank_right.mp3",
      "sha1": "fdecf4e4f1cd72286141208d0412e78fa81168f3"
    },
    {
      "path": "assets/audio/dragtexttoblank/dragtexttoblank_wrong.mp3",
      "sha1": "c9212bbb3c447a62804a77cb5f9793d547990de5"
    },
    {
      "path": "assets/audio/dragtexttopicture/dragtexttopicture_intro.mp3",
      "sha1": "10453ddd3550d101e08ef3268ca247529fd2d34b"
    },
    {
      "path": "assets/audio/dragtexttopicture/dragtexttopicture_outro_lose.mp3",
      "sha1": "d3bebe364bb593f04c39a9c88cbe015d274396c9"
    },
    {
      "path": "assets/audio/dragtexttopicture/dragtexttopicture_outro_win.mp3",
      "sha1": "4fc6882084f9fc3c1de4cf4d0db1ca1500720b80"
    },
    {
      "path": "assets/audio/dragtexttopicture/dragtexttopicture_right.mp3",
      "sha1": "73149666ebd9ae61fb46daf32bc5d4be4e9d2e6c"
    },
    {
      "path": "assets/audio/dragtexttopicture/dragtexttopicture_wrong.mp3",
      "sha1": "c9212bbb3c447a62804a77cb5f9793d547990de5"
    },
    {
      "path": "assets/audio/fillintheblank/fillintheblank_intro.mp3",
      "sha1": "5d27cc6dcbbe4a33ec0ca014929f1c3465c5343d"
    },
    {
      "path": "assets/audio/fillintheblank/fillintheblank_outro_lose.mp3",
      "sha1": "58c2c1315e1945bd8ef1e109e3c9309381586ba7"
    },
    {
      "path": "assets/audio/fillintheblank/fillintheblank_outro_win.mp3",
      "sha1": "3e442d22585a568b010d57b41046713ee21c2e04"
    },
    {
      "path": "assets/audio/fillintheblank/fillintheblank_right.mp3",
      "sha1": "ef5df0bea5298ce0b5a8743b4fb45c84e1e69329"
    },
    {
      "path": "assets/audio/intro.mp3",
      "sha1": "33b11179eb0df69612999feb1bb796874de71212"
    },
    {
      "path": "assets/audio/puzzle/puzzle_intro.mp3",
      "sha1": "da3353bccaa03b4868a9b23849a6f3ebda3160d5"
    },
    {
      "path": "assets/audio/puzzle/puzzle_outro_lose.mp3",
      "sha1": "d3bebe364bb593f04c39a9c88cbe015d274396c9"
    },
    {
      "path": "assets/audio/puzzle/puzzle_outro_win.mp3",
      "sha1": "4fc6882084f9fc3c1de4cf4d0db1ca1500720b80"
    },
    {
      "path": "assets/audio/puzzle/puzzle_pop.mp3",
      "sha1": "0a914e50fef6f0c2a01d1e16111e63edfb86c718"
    },
    {
      "path": "assets/audio/puzzle/puzzle_right.mp3",
      "sha1": "fdecf4e4f1cd72286141208d0412e78fa81168f3"
    },
    {
      "path": "assets/audio/puzzle/puzzle_wrong.mp3",
      "sha1": "c9212bbb3c447a62804a77cb5f9793d547990de5"
    },
    {
      "path": "assets/audio/score_board_sound.mp3",
      "sha1": "83ca4fa884e9c3665e92a77dd55bb74273922419"
    },
    {
      "path": "assets/audio/shootballoon/.DS_Store",
      "sha1": "df2fbeb1400acda0909a32c1cf6bf492f1121e07"
    },
    {
      "path": "assets/audio/shootballoon/shootballoon_arrowfly.mp3",
      "sha1": "00a48505675434e820a4f2d2dcfea94a5ce823f2"
    },
    {
      "path": "assets/audio/shootballoon/shootballoon_intro.mp3",
      "sha1": "8f696b5d9977b3ad5077c0553679608aa53d7b3f"
    },
    {
      "path": "assets/audio/shootballoon/shootballoon_outro_lose.mp3",
      "sha1": "d3bebe364bb593f04c39a9c88cbe015d274396c9"
    },
    {
      "path": "assets/audio/shootballoon/shootballoon_outro_win.mp3",
      "sha1": "4fb218dab639ae3c9383503d9996c297a872b0d8"
    },
    {
      "path": "assets/audio/shootballoon/shootballoon_right.mp3",
      "sha1": "b6b065d1f901ed7e052c0c9725ca7256057cccf4"
    },
    {
      "path": "assets/audio/shootballoon/shootballoon_wrong.mp3",
      "sha1": "1877316d17eba1ea6ee3edffc4b7b5c48222a711"
    },
    {
      "path": "assets/audio/starfly.mp3",
      "sha1": "ef5df0bea5298ce0b5a8743b4fb45c84e1e69329"
    },
    {
      "path": "assets/audio/tickcross/tickcross_hint.mp3",
      "sha1": "fdecf4e4f1cd72286141208d0412e78fa81168f3"
    },
    {
      "path": "assets/audio/tickcross/tickcross_intro.mp3",
      "sha1": "aa0362869d924d1128e9c4d2154bc434ec316b13"
    },
    {
      "path": "assets/audio/tickcross/tickcross_outro_lose.mp3",
      "sha1": "d3bebe364bb593f04c39a9c88cbe015d274396c9"
    },
    {
      "path": "assets/audio/tickcross/tickcross_outro_win.mp3",
      "sha1": "4fc6882084f9fc3c1de4cf4d0db1ca1500720b80"
    },
    {
      "path": "assets/audio/tickcross/tickcross_right.mp3",
      "sha1": "56f9b4f70253a0c4185f0a87e5c9be34776ec74d"
    },
    {
      "path": "assets/audio/tickcross/tickcross_wrong.mp3",
      "sha1": "3517305c26cba2984804b8e77554ca79e3eca8f2"
    }
  ]
}
