{
  "project_info": {
    "project_number": "822577483975",
    "firebase_url": "https://kynaforkids-server-development.firebaseio.com",
    "project_id": "kynaforkids-server-development",
    "storage_bucket": "kynaforkids-server-development.appspot.com"
  },
  "client": [
    {
      "client_info": {
        "mobilesdk_app_id": "1:822577483975:android:f4ef2d6a9bc90cecb1aee2",
        "android_client_info": {
          "package_name": "com.kynaenglish"
        }
      },
      "oauth_client": [
        {
          "client_id": "822577483975-8l94rnqr6ndcltqu2oecrqu0f68a33q1.apps.googleusercontent.com",
          "client_type": 1,
          "android_info": {
            "package_name": "com.kynaenglish",
            "certificate_hash": "5e8f16062ea3cd2c4a0d547876baa6f38cabf625"
          }
        },
        {
          "client_id": "822577483975-4tp41crtq3v440vl7npbct9scac5ujkn.apps.googleusercontent.com",
          "client_type": 3
        }
      ],
      "api_key": [
        {
          "current_key": "AIzaSyCqwnKLzz_UM5BGQgOQekVtTtoh9MfqFss"
        }
      ],
      "services": {
        "appinvite_service": {
          "other_platform_oauth_client": [
            {
              "client_id": "822577483975-4tp41crtq3v440vl7npbct9scac5ujkn.apps.googleusercontent.com",
              "client_type": 3
            },
            {
              "client_id": "822577483975-1vr8j81tt37nk4k05406m98a6qr9fqu9.apps.googleusercontent.com",
              "client_type": 2,
              "ios_info": {
                "bundle_id": "com.kynaenglish.app",
                "app_store_id": "1506869739"
              }
            }
          ]
        }
      }
    }
  ],
  "configuration_version": "1"
}